{
  "type": "object",
  "$schema": "http://json-schema.org/draft-04/schema",
  "title": "MalariaValidation",
  "description": "A single malaria validation",
  "properties": {
    "id": {
      "type": "string",
      "title": "id"
    },
    "requisitionId": {
      "type": "string",
      "title": "requisitionId"
    },
    "productId": {
      "type": "string",
      "title": "productId"
    },
    "productCode": {
      "type": "string",
      "title": "productCode"
    },
    "fullProductName": {
      "type": "string",
      "title": "fullProductName"
    },
    "dispensingUnit": {
      "type": "string",
      "title": "dispensingUnit"
    },
    "totalPatient": {
      "type": "integer",
      "title": "totalPatient"
    },
    "totalConsumption": {
      "type": "integer",
      "title": "totalConsumption"
    }
  },
  "required": [
    "facilityId",
    "requisitionId",
    "productId"
  ]
}
